<svg xmlns="http://www.w3.org/2000/svg" viewBox="0 0 32 32">
  <path d="M28.76872422 22.88366068V8.72598204c0-1.79164703.33789835-4.34029112-.69413225-5.13657869-.86701048-.67055795-4.74891237-.38766631-6.38601675-.38766631H4.83818732c-.75175834.31432404-1.2546768.41909872-1.55328464 1.16561831-.16502012.41385999-.11001341 1.07394047-.11001341 1.63710438v3.21920204c.0078581 6.04287967.0157162 12.08575934.02619367 18.128639.47410543 1.93833159 3.05418192 1.44327123 5.38541855 1.44327123h14.0738589c1.55852336 0 4.5315049.29074973 5.41423158-.38766632 1.07394047-.82771997.69413226-3.67235253.69413226-5.524245zM10.11359245 20.4686043v1.66591741h-.8329587v-1.6109107c-1.2153863-.00523874-1.86760868-.36671138-2.69270928-.63912555v-1.44327122c.70722909.47148606 1.49303919.93773339 2.69270927.91677845v-3.77450784c-.26717543-.13882645-.53697023-.2776529-.80414566-.41647936-.62864808-.36671138-1.27301237-.78319073-1.63710438-1.41707754-1.13418591-1.95928652.63650618-4.18050973 2.44386941-4.27480695V8.05804346h.8329587v1.3882645c.85129428.00523874 1.48780046.1754976 2.08239677.38766632.14406519.31170468.06286481 1.0005982.05500671 1.41707755l-.94297212-.47148606c-.39814378-.06548418-.79628757-.12834898-1.19443135-.19383316v3.97096037c1.00583693.31694341 2.20026828 1.10013414 2.60888953 2.02739006.93249465 2.10859044-.85129428 3.66449443-2.6115089 3.88452126zm16.82157487 3.74569481H19.6349915v-1.83093753h7.30017582v1.83093753zm0-4.55245984H16.88465615v-1.83093754h10.05051117v1.83093754zm0-4.57865352H16.88465615v-1.83093753h10.05051117v1.83093753zm0-4.58127288H16.88465615V8.697169h10.05051117v1.80474387z"/>
  <path d="M8.0862024 11.38987828c-.71246783 1.27301236.40338251 2.29980423 1.1656183 2.69270928.01047748-.86962985.01833558-1.7392597.02881305-2.60888954 0-.23312366.0628648-.69937098-.05500671-.8329587-.45576986.25145923-.88796541.3012272-1.13942465.74913896zM10.11359245 15.97115116V19.302986c2.21860385-.32218214 1.53756843-2.76081282 0-3.33183483z"/>
</svg>
